<?xml version="1.0" encoding="utf-8"?>
<!-- Generator: Adobe Illustrator 18.1.1, SVG Export Plug-In . SVG Version: 6.00 Build 0)  -->
<svg version="1.1" id="Warstwa_1" xmlns="http://www.w3.org/2000/svg" xmlns:xlink="http://www.w3.org/1999/xlink" x="0px" y="0px"
	 viewBox="0 0 46 46" enable-background="new 0 0 46 46" xml:space="preserve">
<g>
	<g>
		<path fill="#F2F2EB" d="M1.8,46c-0.3,0-0.6-0.1-0.9-0.3C0.3,45.4,0,44.8,0,44.2V1.8c0-0.6,0.3-1.2,0.8-1.5C1.4-0.1,2-0.1,2.6,0.2
			L45,21.4c0.6,0.3,1,0.9,1,1.6s-0.4,1.3-1,1.6L2.6,45.8C2.3,45.9,2.1,46,1.8,46z M3.6,4.7v36.7L40.2,23L3.6,4.7z"/>
	</g>
	<g>
		<path fill="#F2F2EB" d="M16.2,30.1c-3.9,0-7.1-3.2-7.1-7.1s3.2-7.1,7.1-7.1s7.1,3.2,7.1,7.1S20.1,30.1,16.2,30.1z M16.2,19.5
			c-1.9,0-3.5,1.6-3.5,3.5s1.6,3.5,3.5,3.5s3.5-1.6,3.5-3.5S18.2,19.5,16.2,19.5z"/>
	</g>
</g>
</svg>
