<?xml version="1.0" encoding="utf-8"?>
<!-- Generator: Adobe Illustrator 18.1.1, SVG Export Plug-In . SVG Version: 6.00 Build 0)  -->
<svg version="1.1" id="Warstwa_1" xmlns="http://www.w3.org/2000/svg" xmlns:xlink="http://www.w3.org/1999/xlink" x="0px" y="0px"
	 viewBox="0 0 43.9 46" enable-background="new 0 0 43.9 46" xml:space="preserve">
<path fill="#F2F2EB" d="M43.9,36.7c-0.1-0.8-0.6-1.4-1-1.7c-0.3-0.3-0.6-0.5-1-0.8l-0.2-0.1c-0.4-0.3-0.7-0.5-1.2-0.8
	c-1.8-1.1-3.1-1.8-4.5-2.4c-2-0.9-2.1-0.9-2.1-0.9l-0.3-0.1c-0.2-0.1-0.5-0.2-0.7-0.2c-0.3-0.1-0.7-0.2-1.1-0.2l-0.3,0
	c-0.4,0-1.1,0.2-1.7,0.8l0,0c0,0,0,0,0,0l0,0l-0.1,0.1c0,0,0,0,0,0l-0.3,0.3c-0.1,0.1-0.2,0.3-0.4,0.4c-0.1,0.1-0.1,0.2-0.2,0.3
	c-0.1,0.1-0.2,0.3-0.3,0.4c-0.3,0.2-0.6,0.6-0.6,1.1c0,0.1,0,0.2,0,0.3l0,0.4l-0.2,0.5l0,0l-0.2,0.2l0,0.1l-0.1,0.1
	c-0.1,0-0.3,0.1-0.5,0.1c-0.1,0-0.1,0-0.2,0c-0.1,0-0.1,0-0.1,0c-9.3-5.5-16.2-16.7-16.3-16.8l-0.1-0.2c-0.1-0.3-0.2-0.5-0.3-0.6
	c-0.1-0.3,0-0.6,0-0.8l0.4-0.1c0.1-0.1,0.3-0.1,0.4-0.2c0.1,0,0.2,0,0.3,0l0.5,0.1c0.4,0,0.8-0.1,1.1-0.4l0,0
	c0.3-0.2,0.6-0.4,0.9-0.6l0.2-0.1c0.2-0.2,0.5-0.3,0.7-0.6c0.4-0.4,0.6-0.8,0.6-1.4c0-0.3,0-0.6-0.1-0.8c-0.1-0.4-0.2-0.7-0.3-0.9
	c-0.2-0.6-0.4-1.2-0.6-1.7c-0.6-1.4-1.2-2.8-2-4.3c-0.4-0.8-0.9-1.7-1.4-2.6l0,0l0,0v0l-0.3-0.5C10.4,1.6,10.2,1.3,10,1
	C9.9,0.8,9.7,0.6,9.4,0.4C8.9,0,8.2-0.1,7.4,0.1l-0.1,0c-0.5,0.1-1,0.2-1.6,0.4c-0.5,0-0.9,0.3-1.1,0.7L4.3,1.6
	C4.2,1.7,4.1,1.7,4,1.8c-0.1,0-0.2,0.1-0.2,0.1C3.3,2,3.1,2.3,2.9,2.6C2.8,2.8,2.6,2.9,2.4,3C2.3,3.2,2.1,3.3,1.9,3.4L1.8,3.6
	c0,0-0.1,0.1-0.1,0.1C1.3,3.9,1.1,4.3,0.8,4.5C0.5,4.9,0.3,5.4,0.2,5.9C0.1,6.5,0,7.1,0,7.8c0.1,0.9,0.2,1.9,0.4,2.9
	c0.2,1,0.4,2,0.6,3c0.2,1,0.6,2.1,0.8,2.8c0.3,0.9,0.6,1.7,1,2.6c0.7,1.6,1.4,3,2.2,4.4c0.5,0.8,1.1,1.7,1.7,2.6
	c0.6,0.9,1.2,1.6,1.7,2.3c0.5,0.7,1.1,1.3,1.7,2c0.5,0.6,1.1,1.2,1.6,1.8c0.9,1,2,2.1,3.3,3.2l1.3,1.2c0.6,0.6,1.3,1.1,1.8,1.5
	c1,0.8,2.1,1.5,3.3,2.2c0.5,0.3,1,0.6,1.5,0.8c0.2,0.1,0.3,0.2,0.5,0.2l0.4,0.2c0.2,0.1,0.4,0.2,0.7,0.3c1.3,0.6,2.7,1.1,4.2,1.7
	l3.6,1.4c0.6,0.2,1.3,0.5,1.9,0.7c0.2,0.1,0.4,0.1,0.7,0.2c0.2,0,0.4,0.1,0.6,0.1c0.5,0,1.1-0.2,1.5-0.5l3-2.2
	c0.2-0.2,0.4-0.3,0.6-0.5l0.1-0.1c0.2-0.1,0.3-0.3,0.5-0.4c0.3-0.2,0.6-0.5,0.7-0.9c0-0.1,0.1-0.1,0.1-0.2c0.2-0.1,0.3-0.2,0.5-0.3
	c0.5-0.3,0.8-0.8,0.9-1.3l0-0.1c0.2-0.6,0.3-1.2,0.4-1.8C43.9,37.5,43.9,37.1,43.9,36.7z M6.4,3C6.5,2.9,6.5,3,6.4,3
	c0.5-0.1,1-0.3,1.4-0.4l0.1,0c0,0,0,0,0,0c0.1,0.1,0.1,0.2,0.2,0.2l0,0.1l0.4,0.7c0.5,0.9,1,1.8,1.4,2.6c0.7,1.4,1.3,2.8,1.9,4.2
	c0.2,0.5,0.4,1,0.6,1.7c0.1,0.1,0.1,0.3,0.1,0.4c0,0,0,0.1,0,0.1c-0.1,0.1-0.1,0.1-0.2,0.1l-0.2,0.2c-0.2,0.2-0.5,0.3-0.7,0.4l0,0
	c-0.1,0-0.1-0.6-0.2-0.6L11.1,12h0c-1.4-3-3.7-7.3-5-9.1L6.4,3z M39.1,40.7l-0.1,0.1c-0.2,0.1-0.4,0.3-0.5,0.4l-2.6,1.9
	c-0.1,0.1-0.2,0.2-0.3,0.2l0,0c-0.1,0-0.3-0.1-0.4-0.1c-0.6-0.2-1.2-0.5-1.8-0.7l-3.6-1.4c-1.5-0.6-2.8-1.1-4-1.7
	c-0.2-0.1-0.4-0.2-0.6-0.3l-0.4-0.2c-0.2-0.1-0.4-0.2-0.6-0.3c-0.5-0.2-0.9-0.5-1.4-0.8c-1-0.6-2-1.3-3-2c-0.5-0.4-1.1-0.9-1.7-1.4
	l-1.3-1.2c-1.2-1-2.2-2.1-3.1-3.1c-0.5-0.6-1.1-1.1-1.6-1.7c-0.6-0.6-1.1-1.3-1.6-1.9c-0.5-0.6-1-1.3-1.6-2.1
	c-0.6-0.9-1.1-1.7-1.6-2.5c-0.7-1.2-1.4-2.6-2-4c-0.3-0.8-0.6-1.6-0.9-2.4c-0.2-0.8-0.5-1.7-0.8-2.7c-0.2-1-0.4-1.9-0.6-2.9
	C2.8,9.3,2.6,8.4,2.5,7.6c0-0.3,0-0.6,0.1-1.1c0-0.2,0.1-0.3,0.2-0.5C3,5.9,3.1,5.8,3.1,5.7c0.1-0.1,0.3-0.2,0.5-0.4
	C3.8,5.2,3.9,5.1,4,5c1.2,1.6,3.4,4.9,4.6,8.8C8.6,13.9,8.5,14,8.4,14c-0.1,0.1-0.2,0.3-0.4,0.5l-0.3,0.5l0,0.1
	c-0.3,0.7-0.3,1.5-0.2,2.3c0.1,0.5,0.3,1,0.5,1.2c0,0.1,0.1,0.3,0.3,0.5c0.9,1.4,7.8,12,17.1,17.5c0.5,0.3,1,0.4,1.2,0.4l0.2,0
	l0.1,0c0.1,0,0.2,0,0.2,0l0.2,0c0.4,0,0.7-0.1,1-0.2l0,0l0.4-0.1c0.3-0.1,0.5-0.3,0.7-0.4c0.1-0.1,0.1-0.1,0.2-0.2l0.1-0.1
	c0.1-0.1,0.2-0.3,0.3-0.4c4.2,1.3,7.7,3.6,9.3,4.8C39.2,40.6,39.1,40.7,39.1,40.7z M41.3,37.3c-0.1,0.5-0.2,0.9-0.3,1.4
	c-1.6-1.3-5.4-3.9-10.1-5.3l-0.1-0.4c0.1-0.1,0.2-0.2,0.2-0.3c0-0.1,0.1-0.1,0.2-0.2c0.1-0.1,0.3-0.2,0.4-0.4l0.1,0
	c0.1,0,0.3,0,0.3,0c0.2,0.1,0.4,0.1,0.6,0.2l0.3,0.1c0.2,0.1,1.9,0.8,1.9,0.8c1.2,0.6,2.5,1.3,4.3,2.3c0.3,0.2,0.7,0.4,1,0.7
	l0.2,0.1c0.2,0.2,0.5,0.3,0.7,0.5c0.2,0.2,0.2,0.3,0.2,0.3C41.4,37.1,41.3,37.3,41.3,37.3z"/>
</svg>
