{
    "title": "Film Spring Open 2012",
    "author": "InventCore",
    "description": null,
    "runningTime": null,
    "endings": null,
    "secretScenes": null,
    "moreInfo": null,
    "credits": null,
    "website": null,
    "imageUrl": "http://inperceptic.com/projects/smoking/player/poster/fso_smoking_poster2012.jpg",
    "startAtomID": "start",
    "isPublishRequested": false,
    "isCloneable": false,
    "basedOnId": null,
    "aspectRatio": 1.7777777777777777,
    "playerCss": "http://inperceptic.com/projects/smoking/player/fso_player.css",
    "playerInitScript": null,
    "atoms": [
        {
            "audioSrc": null,
            "subtitles": [],
            "id": "start",
            "name": "start",
            "src": {
                "id": "cj1IYjFJXTE",
                "type": null,
                "duration": 727
            },
            "offset": 0,
            "length": 650,
            "graphX": 0,
            "graphY": 0,
            "graphImageUrl": null,
            "actions": [],
            "onEnd": [
                {
                    "behavior": "wait",
                    "defaultActionId": null,
                    "when": null
                }
            ]
        }
    ],
    "sourceType": "yt",
    "shapeStyles": [],
    "textStyles": []
}